<?xml version="1.0" encoding="UTF-8" standalone="no"?>
<!DOCTYPE svg PUBLIC "-//W3C//DTD SVG 1.1//EN"
 "http://www.w3.org/Graphics/SVG/1.1/DTD/svg11.dtd">
<!-- Generated by graphviz version 2.36.0 (20140111.2315)
 -->
<!-- Title: controllers_diagram Pages: 1 -->
<svg width="1165pt" height="1104pt"
 viewBox="0.00 0.00 1165.00 1104.00" xmlns="http://www.w3.org/2000/svg" xmlns:xlink="http://www.w3.org/1999/xlink">
<g id="graph0" class="graph" transform="scale(1 1) rotate(0) translate(4 1100)">
<title>controllers_diagram</title>
<polygon fill="white" stroke="none" points="-4,4 -4,-1100 1161,-1100 1161,4 -4,4"/>
<!-- _diagram_info -->
<g id="node1" class="node"><title>_diagram_info</title>
<text text-anchor="start" x="512" y="-63.6" font-family="Times,serif" font-size="13.00">Controllers diagram</text>
<text text-anchor="start" x="512" y="-49.6" font-family="Times,serif" font-size="13.00">Date: Jan 17 2015 &#45; 08:17</text>
<text text-anchor="start" x="512" y="-35.6" font-family="Times,serif" font-size="13.00">Migration version: 20150107152133</text>
<text text-anchor="start" x="512" y="-21.6" font-family="Times,serif" font-size="13.00">Generated by RailRoady 1.3.0</text>
<text text-anchor="start" x="512" y="-7.6" font-family="Times,serif" font-size="13.00">http://railroady.prestonlee.com</text>
</g>
<!-- CardsController -->
<g id="node2" class="node"><title>CardsController</title>
<path fill="none" stroke="black" d="M411,-252.5C411,-252.5 558,-252.5 558,-252.5 564,-252.5 570,-258.5 570,-264.5 570,-264.5 570,-588.5 570,-588.5 570,-594.5 564,-600.5 558,-600.5 558,-600.5 411,-600.5 411,-600.5 405,-600.5 399,-594.5 399,-588.5 399,-588.5 399,-264.5 399,-264.5 399,-258.5 405,-252.5 411,-252.5"/>
<text text-anchor="middle" x="484.5" y="-585.3" font-family="Times,serif" font-size="14.00">CardsController</text>
<polyline fill="none" stroke="black" points="399,-577.5 570,-577.5 "/>
<text text-anchor="start" x="407" y="-562.3" font-family="Times,serif" font-size="14.00">approve</text>
<text text-anchor="start" x="407" y="-547.3" font-family="Times,serif" font-size="14.00">approve_execute</text>
<text text-anchor="start" x="407" y="-532.3" font-family="Times,serif" font-size="14.00">cancel</text>
<text text-anchor="start" x="407" y="-517.3" font-family="Times,serif" font-size="14.00">cancel_execute</text>
<text text-anchor="start" x="407" y="-502.3" font-family="Times,serif" font-size="14.00">create</text>
<text text-anchor="start" x="407" y="-487.3" font-family="Times,serif" font-size="14.00">destroy</text>
<text text-anchor="start" x="407" y="-472.3" font-family="Times,serif" font-size="14.00">edit</text>
<text text-anchor="start" x="407" y="-457.3" font-family="Times,serif" font-size="14.00">index</text>
<text text-anchor="start" x="407" y="-442.3" font-family="Times,serif" font-size="14.00">manage_cards</text>
<text text-anchor="start" x="407" y="-427.3" font-family="Times,serif" font-size="14.00">new</text>
<text text-anchor="start" x="407" y="-412.3" font-family="Times,serif" font-size="14.00">refuse</text>
<text text-anchor="start" x="407" y="-397.3" font-family="Times,serif" font-size="14.00">refuse_execute</text>
<text text-anchor="start" x="407" y="-382.3" font-family="Times,serif" font-size="14.00">show</text>
<text text-anchor="start" x="407" y="-367.3" font-family="Times,serif" font-size="14.00">update</text>
<polyline fill="none" stroke="black" points="399,-359.5 570,-359.5 "/>
<polyline fill="none" stroke="black" points="399,-335.5 570,-335.5 "/>
<text text-anchor="start" x="407" y="-320.3" font-family="Times,serif" font-size="14.00">_layout</text>
<text text-anchor="start" x="407" y="-305.3" font-family="Times,serif" font-size="14.00">card_params</text>
<text text-anchor="start" x="407" y="-290.3" font-family="Times,serif" font-size="14.00">make_manege_card_grid</text>
<text text-anchor="start" x="407" y="-275.3" font-family="Times,serif" font-size="14.00">set_card</text>
<text text-anchor="start" x="407" y="-260.3" font-family="Times,serif" font-size="14.00">validate_approval_password</text>
</g>
<!-- SessionController -->
<g id="node3" class="node"><title>SessionController</title>
<path fill="none" stroke="black" d="M33,-63.5C33,-63.5 122,-63.5 122,-63.5 128,-63.5 134,-69.5 134,-75.5 134,-75.5 134,-189.5 134,-189.5 134,-195.5 128,-201.5 122,-201.5 122,-201.5 33,-201.5 33,-201.5 27,-201.5 21,-195.5 21,-189.5 21,-189.5 21,-75.5 21,-75.5 21,-69.5 27,-63.5 33,-63.5"/>
<text text-anchor="middle" x="77.5" y="-186.3" font-family="Times,serif" font-size="14.00">SessionController</text>
<polyline fill="none" stroke="black" points="21,-178.5 134,-178.5 "/>
<text text-anchor="start" x="29" y="-163.3" font-family="Times,serif" font-size="14.00">choose_root</text>
<text text-anchor="start" x="29" y="-148.3" font-family="Times,serif" font-size="14.00">login</text>
<text text-anchor="start" x="29" y="-133.3" font-family="Times,serif" font-size="14.00">login_attempt</text>
<text text-anchor="start" x="29" y="-118.3" font-family="Times,serif" font-size="14.00">logout</text>
<polyline fill="none" stroke="black" points="21,-110.5 134,-110.5 "/>
<polyline fill="none" stroke="black" points="21,-86.5 134,-86.5 "/>
<text text-anchor="start" x="29" y="-71.3" font-family="Times,serif" font-size="14.00">_layout</text>
</g>
<!-- VariationsController -->
<g id="node4" class="node"><title>VariationsController</title>
<path fill="none" stroke="black" d="M894,-294.5C894,-294.5 998,-294.5 998,-294.5 1004,-294.5 1010,-300.5 1010,-306.5 1010,-306.5 1010,-495.5 1010,-495.5 1010,-501.5 1004,-507.5 998,-507.5 998,-507.5 894,-507.5 894,-507.5 888,-507.5 882,-501.5 882,-495.5 882,-495.5 882,-306.5 882,-306.5 882,-300.5 888,-294.5 894,-294.5"/>
<text text-anchor="middle" x="946" y="-492.3" font-family="Times,serif" font-size="14.00">VariationsController</text>
<polyline fill="none" stroke="black" points="882,-484.5 1010,-484.5 "/>
<text text-anchor="start" x="890" y="-469.3" font-family="Times,serif" font-size="14.00">create</text>
<text text-anchor="start" x="890" y="-454.3" font-family="Times,serif" font-size="14.00">destroy</text>
<text text-anchor="start" x="890" y="-439.3" font-family="Times,serif" font-size="14.00">edit</text>
<text text-anchor="start" x="890" y="-424.3" font-family="Times,serif" font-size="14.00">index</text>
<text text-anchor="start" x="890" y="-409.3" font-family="Times,serif" font-size="14.00">new</text>
<text text-anchor="start" x="890" y="-394.3" font-family="Times,serif" font-size="14.00">show</text>
<text text-anchor="start" x="890" y="-379.3" font-family="Times,serif" font-size="14.00">update</text>
<polyline fill="none" stroke="black" points="882,-371.5 1010,-371.5 "/>
<polyline fill="none" stroke="black" points="882,-347.5 1010,-347.5 "/>
<text text-anchor="start" x="890" y="-332.3" font-family="Times,serif" font-size="14.00">_layout</text>
<text text-anchor="start" x="890" y="-317.3" font-family="Times,serif" font-size="14.00">set_variation</text>
<text text-anchor="start" x="890" y="-302.3" font-family="Times,serif" font-size="14.00">variation_params</text>
</g>
<!-- HolidaysController -->
<g id="node5" class="node"><title>HolidaysController</title>
<path fill="none" stroke="black" d="M180,-126.5C180,-126.5 277,-126.5 277,-126.5 283,-126.5 289,-132.5 289,-138.5 289,-138.5 289,-342.5 289,-342.5 289,-348.5 283,-354.5 277,-354.5 277,-354.5 180,-354.5 180,-354.5 174,-354.5 168,-348.5 168,-342.5 168,-342.5 168,-138.5 168,-138.5 168,-132.5 174,-126.5 180,-126.5"/>
<text text-anchor="middle" x="228.5" y="-339.3" font-family="Times,serif" font-size="14.00">HolidaysController</text>
<polyline fill="none" stroke="black" points="168,-331.5 289,-331.5 "/>
<text text-anchor="start" x="176" y="-316.3" font-family="Times,serif" font-size="14.00">create</text>
<text text-anchor="start" x="176" y="-301.3" font-family="Times,serif" font-size="14.00">destroy</text>
<text text-anchor="start" x="176" y="-286.3" font-family="Times,serif" font-size="14.00">edit</text>
<text text-anchor="start" x="176" y="-271.3" font-family="Times,serif" font-size="14.00">index</text>
<text text-anchor="start" x="176" y="-256.3" font-family="Times,serif" font-size="14.00">new</text>
<text text-anchor="start" x="176" y="-241.3" font-family="Times,serif" font-size="14.00">show</text>
<text text-anchor="start" x="176" y="-226.3" font-family="Times,serif" font-size="14.00">test</text>
<text text-anchor="start" x="176" y="-211.3" font-family="Times,serif" font-size="14.00">update</text>
<polyline fill="none" stroke="black" points="168,-203.5 289,-203.5 "/>
<polyline fill="none" stroke="black" points="168,-179.5 289,-179.5 "/>
<text text-anchor="start" x="176" y="-164.3" font-family="Times,serif" font-size="14.00">_layout</text>
<text text-anchor="start" x="176" y="-149.3" font-family="Times,serif" font-size="14.00">holiday_params</text>
<text text-anchor="start" x="176" y="-134.3" font-family="Times,serif" font-size="14.00">set_holiday</text>
</g>
<!-- PasswordResetsController -->
<g id="node6" class="node"><title>PasswordResetsController</title>
<path fill="none" stroke="black" d="M621,-126.5C621,-126.5 793,-126.5 793,-126.5 799,-126.5 805,-132.5 805,-138.5 805,-138.5 805,-267.5 805,-267.5 805,-273.5 799,-279.5 793,-279.5 793,-279.5 621,-279.5 621,-279.5 615,-279.5 609,-273.5 609,-267.5 609,-267.5 609,-138.5 609,-138.5 609,-132.5 615,-126.5 621,-126.5"/>
<text text-anchor="middle" x="707" y="-264.3" font-family="Times,serif" font-size="14.00">PasswordResetsController</text>
<polyline fill="none" stroke="black" points="609,-256.5 805,-256.5 "/>
<text text-anchor="start" x="617" y="-241.3" font-family="Times,serif" font-size="14.00">inform_email</text>
<text text-anchor="start" x="617" y="-226.3" font-family="Times,serif" font-size="14.00">inform_new_password</text>
<text text-anchor="start" x="617" y="-211.3" font-family="Times,serif" font-size="14.00">reset</text>
<text text-anchor="start" x="617" y="-196.3" font-family="Times,serif" font-size="14.00">send_reset_password_instruction</text>
<polyline fill="none" stroke="black" points="609,-188.5 805,-188.5 "/>
<polyline fill="none" stroke="black" points="609,-164.5 805,-164.5 "/>
<text text-anchor="start" x="617" y="-149.3" font-family="Times,serif" font-size="14.00">_layout</text>
<text text-anchor="start" x="617" y="-134.3" font-family="Times,serif" font-size="14.00">user_params</text>
</g>
<!-- ProductsController -->
<g id="node7" class="node"><title>ProductsController</title>
<path fill="none" stroke="black" d="M348,-0.5C348,-0.5 443,-0.5 443,-0.5 449,-0.5 455,-6.5 455,-12.5 455,-12.5 455,-201.5 455,-201.5 455,-207.5 449,-213.5 443,-213.5 443,-213.5 348,-213.5 348,-213.5 342,-213.5 336,-207.5 336,-201.5 336,-201.5 336,-12.5 336,-12.5 336,-6.5 342,-0.5 348,-0.5"/>
<text text-anchor="middle" x="395.5" y="-198.3" font-family="Times,serif" font-size="14.00">ProductsController</text>
<polyline fill="none" stroke="black" points="336,-190.5 455,-190.5 "/>
<text text-anchor="start" x="344" y="-175.3" font-family="Times,serif" font-size="14.00">create</text>
<text text-anchor="start" x="344" y="-160.3" font-family="Times,serif" font-size="14.00">destroy</text>
<text text-anchor="start" x="344" y="-145.3" font-family="Times,serif" font-size="14.00">edit</text>
<text text-anchor="start" x="344" y="-130.3" font-family="Times,serif" font-size="14.00">index</text>
<text text-anchor="start" x="344" y="-115.3" font-family="Times,serif" font-size="14.00">new</text>
<text text-anchor="start" x="344" y="-100.3" font-family="Times,serif" font-size="14.00">show</text>
<text text-anchor="start" x="344" y="-85.3" font-family="Times,serif" font-size="14.00">update</text>
<polyline fill="none" stroke="black" points="336,-77.5 455,-77.5 "/>
<polyline fill="none" stroke="black" points="336,-53.5 455,-53.5 "/>
<text text-anchor="start" x="344" y="-38.3" font-family="Times,serif" font-size="14.00">_layout</text>
<text text-anchor="start" x="344" y="-23.3" font-family="Times,serif" font-size="14.00">product_params</text>
<text text-anchor="start" x="344" y="-8.3" font-family="Times,serif" font-size="14.00">set_product</text>
</g>
<!-- SearchFormController -->
<g id="node8" class="node"><title>SearchFormController</title>
<path fill="none" stroke="black" d="M495,-945.5C495,-945.5 610,-945.5 610,-945.5 616,-945.5 622,-951.5 622,-957.5 622,-957.5 622,-1071.5 622,-1071.5 622,-1077.5 616,-1083.5 610,-1083.5 610,-1083.5 495,-1083.5 495,-1083.5 489,-1083.5 483,-1077.5 483,-1071.5 483,-1071.5 483,-957.5 483,-957.5 483,-951.5 489,-945.5 495,-945.5"/>
<text text-anchor="middle" x="552.5" y="-1068.3" font-family="Times,serif" font-size="14.00">SearchFormController</text>
<polyline fill="none" stroke="black" points="483,-1060.5 622,-1060.5 "/>
<text text-anchor="start" x="491" y="-1045.3" font-family="Times,serif" font-size="14.00">loan</text>
<text text-anchor="start" x="491" y="-1030.3" font-family="Times,serif" font-size="14.00">search</text>
<text text-anchor="start" x="491" y="-1015.3" font-family="Times,serif" font-size="14.00">search_employee</text>
<polyline fill="none" stroke="black" points="483,-1007.5 622,-1007.5 "/>
<polyline fill="none" stroke="black" points="483,-983.5 622,-983.5 "/>
<text text-anchor="start" x="491" y="-968.3" font-family="Times,serif" font-size="14.00">_layout</text>
<text text-anchor="start" x="491" y="-953.3" font-family="Times,serif" font-size="14.00">choose_grid</text>
</g>
<!-- LoanController -->
<g id="node9" class="node"><title>LoanController</title>
<path fill="none" stroke="black" d="M306,-651.5C306,-651.5 403,-651.5 403,-651.5 409,-651.5 415,-657.5 415,-663.5 415,-663.5 415,-912.5 415,-912.5 415,-918.5 409,-924.5 403,-924.5 403,-924.5 306,-924.5 306,-924.5 300,-924.5 294,-918.5 294,-912.5 294,-912.5 294,-663.5 294,-663.5 294,-657.5 300,-651.5 306,-651.5"/>
<text text-anchor="middle" x="354.5" y="-909.3" font-family="Times,serif" font-size="14.00">LoanController</text>
<polyline fill="none" stroke="black" points="294,-901.5 415,-901.5 "/>
<text text-anchor="start" x="302" y="-886.3" font-family="Times,serif" font-size="14.00">approve</text>
<text text-anchor="start" x="302" y="-871.3" font-family="Times,serif" font-size="14.00">approve_execute</text>
<text text-anchor="start" x="302" y="-856.3" font-family="Times,serif" font-size="14.00">create</text>
<text text-anchor="start" x="302" y="-841.3" font-family="Times,serif" font-size="14.00">manage_loan</text>
<text text-anchor="start" x="302" y="-826.3" font-family="Times,serif" font-size="14.00">new</text>
<text text-anchor="start" x="302" y="-811.3" font-family="Times,serif" font-size="14.00">portability_accept</text>
<text text-anchor="start" x="302" y="-796.3" font-family="Times,serif" font-size="14.00">refuse</text>
<text text-anchor="start" x="302" y="-781.3" font-family="Times,serif" font-size="14.00">refuse_execute</text>
<text text-anchor="start" x="302" y="-766.3" font-family="Times,serif" font-size="14.00">suspended</text>
<text text-anchor="start" x="302" y="-751.3" font-family="Times,serif" font-size="14.00">suspended_execute</text>
<polyline fill="none" stroke="black" points="294,-743.5 415,-743.5 "/>
<polyline fill="none" stroke="black" points="294,-719.5 415,-719.5 "/>
<text text-anchor="start" x="302" y="-704.3" font-family="Times,serif" font-size="14.00">_layout</text>
<text text-anchor="start" x="302" y="-689.3" font-family="Times,serif" font-size="14.00">loan_params</text>
<text text-anchor="start" x="302" y="-674.3" font-family="Times,serif" font-size="14.00">make_grid</text>
<text text-anchor="start" x="302" y="-659.3" font-family="Times,serif" font-size="14.00">set_loan</text>
</g>
<!-- OrgansController -->
<g id="node10" class="node"><title>OrgansController</title>
<path fill="none" stroke="black" d="M54,-441.5C54,-441.5 141,-441.5 141,-441.5 147,-441.5 153,-447.5 153,-453.5 153,-453.5 153,-642.5 153,-642.5 153,-648.5 147,-654.5 141,-654.5 141,-654.5 54,-654.5 54,-654.5 48,-654.5 42,-648.5 42,-642.5 42,-642.5 42,-453.5 42,-453.5 42,-447.5 48,-441.5 54,-441.5"/>
<text text-anchor="middle" x="97.5" y="-639.3" font-family="Times,serif" font-size="14.00">OrgansController</text>
<polyline fill="none" stroke="black" points="42,-631.5 153,-631.5 "/>
<text text-anchor="start" x="50" y="-616.3" font-family="Times,serif" font-size="14.00">create</text>
<text text-anchor="start" x="50" y="-601.3" font-family="Times,serif" font-size="14.00">destroy</text>
<text text-anchor="start" x="50" y="-586.3" font-family="Times,serif" font-size="14.00">edit</text>
<text text-anchor="start" x="50" y="-571.3" font-family="Times,serif" font-size="14.00">index</text>
<text text-anchor="start" x="50" y="-556.3" font-family="Times,serif" font-size="14.00">new</text>
<text text-anchor="start" x="50" y="-541.3" font-family="Times,serif" font-size="14.00">show</text>
<text text-anchor="start" x="50" y="-526.3" font-family="Times,serif" font-size="14.00">update</text>
<polyline fill="none" stroke="black" points="42,-518.5 153,-518.5 "/>
<polyline fill="none" stroke="black" points="42,-494.5 153,-494.5 "/>
<text text-anchor="start" x="50" y="-479.3" font-family="Times,serif" font-size="14.00">_layout</text>
<text text-anchor="start" x="50" y="-464.3" font-family="Times,serif" font-size="14.00">organ_params</text>
<text text-anchor="start" x="50" y="-449.3" font-family="Times,serif" font-size="14.00">set_organ</text>
</g>
<!-- PropertiesController -->
<g id="node11" class="node"><title>PropertiesController</title>
<path fill="none" stroke="black" d="M936,-882.5C936,-882.5 1039,-882.5 1039,-882.5 1045,-882.5 1051,-888.5 1051,-894.5 1051,-894.5 1051,-1083.5 1051,-1083.5 1051,-1089.5 1045,-1095.5 1039,-1095.5 1039,-1095.5 936,-1095.5 936,-1095.5 930,-1095.5 924,-1089.5 924,-1083.5 924,-1083.5 924,-894.5 924,-894.5 924,-888.5 930,-882.5 936,-882.5"/>
<text text-anchor="middle" x="987.5" y="-1080.3" font-family="Times,serif" font-size="14.00">PropertiesController</text>
<polyline fill="none" stroke="black" points="924,-1072.5 1051,-1072.5 "/>
<text text-anchor="start" x="932" y="-1057.3" font-family="Times,serif" font-size="14.00">create</text>
<text text-anchor="start" x="932" y="-1042.3" font-family="Times,serif" font-size="14.00">destroy</text>
<text text-anchor="start" x="932" y="-1027.3" font-family="Times,serif" font-size="14.00">edit</text>
<text text-anchor="start" x="932" y="-1012.3" font-family="Times,serif" font-size="14.00">index</text>
<text text-anchor="start" x="932" y="-997.3" font-family="Times,serif" font-size="14.00">new</text>
<text text-anchor="start" x="932" y="-982.3" font-family="Times,serif" font-size="14.00">show</text>
<text text-anchor="start" x="932" y="-967.3" font-family="Times,serif" font-size="14.00">update</text>
<polyline fill="none" stroke="black" points="924,-959.5 1051,-959.5 "/>
<polyline fill="none" stroke="black" points="924,-935.5 1051,-935.5 "/>
<text text-anchor="start" x="932" y="-920.3" font-family="Times,serif" font-size="14.00">_layout</text>
<text text-anchor="start" x="932" y="-905.3" font-family="Times,serif" font-size="14.00">property_params</text>
<text text-anchor="start" x="932" y="-890.3" font-family="Times,serif" font-size="14.00">set_property</text>
</g>
<!-- AssistanceController -->
<g id="node12" class="node"><title>AssistanceController</title>
<path fill="none" stroke="black" d="M999,-546.5C999,-546.5 1145,-546.5 1145,-546.5 1151,-546.5 1157,-552.5 1157,-558.5 1157,-558.5 1157,-702.5 1157,-702.5 1157,-708.5 1151,-714.5 1145,-714.5 1145,-714.5 999,-714.5 999,-714.5 993,-714.5 987,-708.5 987,-702.5 987,-702.5 987,-558.5 987,-558.5 987,-552.5 993,-546.5 999,-546.5"/>
<text text-anchor="middle" x="1072" y="-699.3" font-family="Times,serif" font-size="14.00">AssistanceController</text>
<polyline fill="none" stroke="black" points="987,-691.5 1157,-691.5 "/>
<text text-anchor="start" x="995" y="-676.3" font-family="Times,serif" font-size="14.00">create</text>
<text text-anchor="start" x="995" y="-661.3" font-family="Times,serif" font-size="14.00">manage_assistance_contract</text>
<text text-anchor="start" x="995" y="-646.3" font-family="Times,serif" font-size="14.00">new</text>
<polyline fill="none" stroke="black" points="987,-638.5 1157,-638.5 "/>
<polyline fill="none" stroke="black" points="987,-614.5 1157,-614.5 "/>
<text text-anchor="start" x="995" y="-599.3" font-family="Times,serif" font-size="14.00">_layout</text>
<text text-anchor="start" x="995" y="-584.3" font-family="Times,serif" font-size="14.00">assistance_contract_params</text>
<text text-anchor="start" x="995" y="-569.3" font-family="Times,serif" font-size="14.00">make_grid</text>
<text text-anchor="start" x="995" y="-554.3" font-family="Times,serif" font-size="14.00">set_assistance_contract</text>
</g>
<!-- ApplicationController -->
<g id="node13" class="node"><title>ApplicationController</title>
<path fill="none" stroke="black" d="M12,-252.5C12,-252.5 124,-252.5 124,-252.5 130,-252.5 136,-258.5 136,-264.5 136,-264.5 136,-394.5 136,-394.5 136,-400.5 130,-406.5 124,-406.5 124,-406.5 12,-406.5 12,-406.5 6,-406.5 -5.68434e-14,-400.5 -5.68434e-14,-394.5 -5.68434e-14,-394.5 -5.68434e-14,-264.5 -5.68434e-14,-264.5 -5.68434e-14,-258.5 6,-252.5 12,-252.5"/>
<text text-anchor="middle" x="68" y="-391.3" font-family="Times,serif" font-size="14.00">ApplicationController</text>
<polyline fill="none" stroke="black" points="-5.68434e-14,-383.5 136,-383.5 "/>
<polyline fill="none" stroke="black" points="-5.68434e-14,-359.5 136,-359.5 "/>
<polyline fill="none" stroke="black" points="-5.68434e-14,-335.5 136,-335.5 "/>
<text text-anchor="start" x="8" y="-320.3" font-family="Times,serif" font-size="14.00">_layout</text>
<text text-anchor="start" x="8" y="-305.3" font-family="Times,serif" font-size="14.00">current_user</text>
<text text-anchor="start" x="8" y="-290.3" font-family="Times,serif" font-size="14.00">require_login</text>
<text text-anchor="start" x="8" y="-275.3" font-family="Times,serif" font-size="14.00">set_last_interaction</text>
<text text-anchor="start" x="8" y="-260.3" font-family="Times,serif" font-size="14.00">user_sign_in?</text>
</g>
<!-- PublicEmployeesController -->
<g id="node14" class="node"><title>PublicEmployeesController</title>
<path fill="none" stroke="black" d="M621,-315.5C621,-315.5 840,-315.5 840,-315.5 846,-315.5 852,-321.5 852,-327.5 852,-327.5 852,-576.5 852,-576.5 852,-582.5 846,-588.5 840,-588.5 840,-588.5 621,-588.5 621,-588.5 615,-588.5 609,-582.5 609,-576.5 609,-576.5 609,-327.5 609,-327.5 609,-321.5 615,-315.5 621,-315.5"/>
<text text-anchor="middle" x="730.5" y="-573.3" font-family="Times,serif" font-size="14.00">PublicEmployeesController</text>
<polyline fill="none" stroke="black" points="609,-565.5 852,-565.5 "/>
<text text-anchor="start" x="617" y="-550.3" font-family="Times,serif" font-size="14.00">create</text>
<text text-anchor="start" x="617" y="-535.3" font-family="Times,serif" font-size="14.00">destroy</text>
<text text-anchor="start" x="617" y="-520.3" font-family="Times,serif" font-size="14.00">edit</text>
<text text-anchor="start" x="617" y="-505.3" font-family="Times,serif" font-size="14.00">generate_approval_password</text>
<text text-anchor="start" x="617" y="-490.3" font-family="Times,serif" font-size="14.00">index</text>
<text text-anchor="start" x="617" y="-475.3" font-family="Times,serif" font-size="14.00">manual</text>
<text text-anchor="start" x="617" y="-460.3" font-family="Times,serif" font-size="14.00">new</text>
<text text-anchor="start" x="617" y="-445.3" font-family="Times,serif" font-size="14.00">show</text>
<text text-anchor="start" x="617" y="-430.3" font-family="Times,serif" font-size="14.00">update</text>
<text text-anchor="start" x="617" y="-415.3" font-family="Times,serif" font-size="14.00">upload_file</text>
<polyline fill="none" stroke="black" points="609,-407.5 852,-407.5 "/>
<polyline fill="none" stroke="black" points="609,-383.5 852,-383.5 "/>
<text text-anchor="start" x="617" y="-368.3" font-family="Times,serif" font-size="14.00">_layout</text>
<text text-anchor="start" x="617" y="-353.3" font-family="Times,serif" font-size="14.00">public_employee_params</text>
<text text-anchor="start" x="617" y="-338.3" font-family="Times,serif" font-size="14.00">set_public_employee</text>
<text text-anchor="start" x="617" y="-323.3" font-family="Times,serif" font-size="14.00">verify_margin_history_to_current_month</text>
</g>
<!-- UsersController -->
<g id="node15" class="node"><title>UsersController</title>
<path fill="none" stroke="black" d="M684,-630.5C684,-630.5 773,-630.5 773,-630.5 779,-630.5 785,-636.5 785,-642.5 785,-642.5 785,-906.5 785,-906.5 785,-912.5 779,-918.5 773,-918.5 773,-918.5 684,-918.5 684,-918.5 678,-918.5 672,-912.5 672,-906.5 672,-906.5 672,-642.5 672,-642.5 672,-636.5 678,-630.5 684,-630.5"/>
<text text-anchor="middle" x="728.5" y="-903.3" font-family="Times,serif" font-size="14.00">UsersController</text>
<polyline fill="none" stroke="black" points="672,-895.5 785,-895.5 "/>
<text text-anchor="start" x="680" y="-880.3" font-family="Times,serif" font-size="14.00">block</text>
<text text-anchor="start" x="680" y="-865.3" font-family="Times,serif" font-size="14.00">change_password</text>
<text text-anchor="start" x="680" y="-850.3" font-family="Times,serif" font-size="14.00">create</text>
<text text-anchor="start" x="680" y="-835.3" font-family="Times,serif" font-size="14.00">dashboard</text>
<text text-anchor="start" x="680" y="-820.3" font-family="Times,serif" font-size="14.00">destroy</text>
<text text-anchor="start" x="680" y="-805.3" font-family="Times,serif" font-size="14.00">edit</text>
<text text-anchor="start" x="680" y="-790.3" font-family="Times,serif" font-size="14.00">index</text>
<text text-anchor="start" x="680" y="-775.3" font-family="Times,serif" font-size="14.00">new</text>
<text text-anchor="start" x="680" y="-760.3" font-family="Times,serif" font-size="14.00">show</text>
<text text-anchor="start" x="680" y="-745.3" font-family="Times,serif" font-size="14.00">unlock</text>
<text text-anchor="start" x="680" y="-730.3" font-family="Times,serif" font-size="14.00">update</text>
<text text-anchor="start" x="680" y="-715.3" font-family="Times,serif" font-size="14.00">update_password</text>
<polyline fill="none" stroke="black" points="672,-707.5 785,-707.5 "/>
<polyline fill="none" stroke="black" points="672,-683.5 785,-683.5 "/>
<text text-anchor="start" x="680" y="-668.3" font-family="Times,serif" font-size="14.00">_layout</text>
<text text-anchor="start" x="680" y="-653.3" font-family="Times,serif" font-size="14.00">set_user</text>
<text text-anchor="start" x="680" y="-638.3" font-family="Times,serif" font-size="14.00">user_params</text>
</g>
<!-- FinancialReleasesController -->
<g id="node16" class="node"><title>FinancialReleasesController</title>
<path fill="none" stroke="black" d="M474,-651.5C474,-651.5 620,-651.5 620,-651.5 626,-651.5 632,-657.5 632,-663.5 632,-663.5 632,-882.5 632,-882.5 632,-888.5 626,-894.5 620,-894.5 620,-894.5 474,-894.5 474,-894.5 468,-894.5 462,-888.5 462,-882.5 462,-882.5 462,-663.5 462,-663.5 462,-657.5 468,-651.5 474,-651.5"/>
<text text-anchor="middle" x="547" y="-879.3" font-family="Times,serif" font-size="14.00">FinancialReleasesController</text>
<polyline fill="none" stroke="black" points="462,-871.5 632,-871.5 "/>
<text text-anchor="start" x="470" y="-856.3" font-family="Times,serif" font-size="14.00">create</text>
<text text-anchor="start" x="470" y="-841.3" font-family="Times,serif" font-size="14.00">destroy</text>
<text text-anchor="start" x="470" y="-826.3" font-family="Times,serif" font-size="14.00">edit</text>
<text text-anchor="start" x="470" y="-811.3" font-family="Times,serif" font-size="14.00">file_release</text>
<text text-anchor="start" x="470" y="-796.3" font-family="Times,serif" font-size="14.00">index</text>
<text text-anchor="start" x="470" y="-781.3" font-family="Times,serif" font-size="14.00">new</text>
<text text-anchor="start" x="470" y="-766.3" font-family="Times,serif" font-size="14.00">show</text>
<text text-anchor="start" x="470" y="-751.3" font-family="Times,serif" font-size="14.00">update</text>
<text text-anchor="start" x="470" y="-736.3" font-family="Times,serif" font-size="14.00">upload</text>
<polyline fill="none" stroke="black" points="462,-728.5 632,-728.5 "/>
<polyline fill="none" stroke="black" points="462,-704.5 632,-704.5 "/>
<text text-anchor="start" x="470" y="-689.3" font-family="Times,serif" font-size="14.00">_layout</text>
<text text-anchor="start" x="470" y="-674.3" font-family="Times,serif" font-size="14.00">financial_release_params</text>
<text text-anchor="start" x="470" y="-659.3" font-family="Times,serif" font-size="14.00">set_financial_release</text>
</g>
<!-- ConsigneesController -->
<g id="node17" class="node"><title>ConsigneesController</title>
<path fill="none" stroke="black" d="M831,-630.5C831,-630.5 941,-630.5 941,-630.5 947,-630.5 953,-636.5 953,-642.5 953,-642.5 953,-831.5 953,-831.5 953,-837.5 947,-843.5 941,-843.5 941,-843.5 831,-843.5 831,-843.5 825,-843.5 819,-837.5 819,-831.5 819,-831.5 819,-642.5 819,-642.5 819,-636.5 825,-630.5 831,-630.5"/>
<text text-anchor="middle" x="886" y="-828.3" font-family="Times,serif" font-size="14.00">ConsigneesController</text>
<polyline fill="none" stroke="black" points="819,-820.5 953,-820.5 "/>
<text text-anchor="start" x="827" y="-805.3" font-family="Times,serif" font-size="14.00">create</text>
<text text-anchor="start" x="827" y="-790.3" font-family="Times,serif" font-size="14.00">destroy</text>
<text text-anchor="start" x="827" y="-775.3" font-family="Times,serif" font-size="14.00">edit</text>
<text text-anchor="start" x="827" y="-760.3" font-family="Times,serif" font-size="14.00">index</text>
<text text-anchor="start" x="827" y="-745.3" font-family="Times,serif" font-size="14.00">new</text>
<text text-anchor="start" x="827" y="-730.3" font-family="Times,serif" font-size="14.00">show</text>
<text text-anchor="start" x="827" y="-715.3" font-family="Times,serif" font-size="14.00">update</text>
<polyline fill="none" stroke="black" points="819,-707.5 953,-707.5 "/>
<polyline fill="none" stroke="black" points="819,-683.5 953,-683.5 "/>
<text text-anchor="start" x="827" y="-668.3" font-family="Times,serif" font-size="14.00">_layout</text>
<text text-anchor="start" x="827" y="-653.3" font-family="Times,serif" font-size="14.00">consignee_params</text>
<text text-anchor="start" x="827" y="-638.3" font-family="Times,serif" font-size="14.00">set_consignee</text>
</g>
<!-- FileController -->
<g id="node18" class="node"><title>FileController</title>
<path fill="none" stroke="black" d="M852,-84.5C852,-84.5 1007,-84.5 1007,-84.5 1013,-84.5 1019,-90.5 1019,-96.5 1019,-96.5 1019,-240.5 1019,-240.5 1019,-246.5 1013,-252.5 1007,-252.5 1007,-252.5 852,-252.5 852,-252.5 846,-252.5 840,-246.5 840,-240.5 840,-240.5 840,-96.5 840,-96.5 840,-90.5 846,-84.5 852,-84.5"/>
<text text-anchor="middle" x="929.5" y="-237.3" font-family="Times,serif" font-size="14.00">FileController</text>
<polyline fill="none" stroke="black" points="840,-229.5 1019,-229.5 "/>
<text text-anchor="start" x="848" y="-214.3" font-family="Times,serif" font-size="14.00">margin_file</text>
<text text-anchor="start" x="848" y="-199.3" font-family="Times,serif" font-size="14.00">upload_margin_file</text>
<polyline fill="none" stroke="black" points="840,-191.5 1019,-191.5 "/>
<polyline fill="none" stroke="black" points="840,-167.5 1019,-167.5 "/>
<text text-anchor="start" x="848" y="-152.3" font-family="Times,serif" font-size="14.00">_layout</text>
<text text-anchor="start" x="848" y="-137.3" font-family="Times,serif" font-size="14.00">create_margin_history</text>
<text text-anchor="start" x="848" y="-122.3" font-family="Times,serif" font-size="14.00">fill_public_employee</text>
<text text-anchor="start" x="848" y="-107.3" font-family="Times,serif" font-size="14.00">update_employee_not_in_file</text>
<text text-anchor="start" x="848" y="-92.3" font-family="Times,serif" font-size="14.00">update_public_employee</text>
</g>
<!-- AttendanceLocalsController -->
<g id="node19" class="node"><title>AttendanceLocalsController</title>
<path fill="none" stroke="black" d="M201,-399.5C201,-399.5 347,-399.5 347,-399.5 353,-399.5 359,-405.5 359,-411.5 359,-411.5 359,-600.5 359,-600.5 359,-606.5 353,-612.5 347,-612.5 347,-612.5 201,-612.5 201,-612.5 195,-612.5 189,-606.5 189,-600.5 189,-600.5 189,-411.5 189,-411.5 189,-405.5 195,-399.5 201,-399.5"/>
<text text-anchor="middle" x="274" y="-597.3" font-family="Times,serif" font-size="14.00">AttendanceLocalsController</text>
<polyline fill="none" stroke="black" points="189,-589.5 359,-589.5 "/>
<text text-anchor="start" x="197" y="-574.3" font-family="Times,serif" font-size="14.00">create</text>
<text text-anchor="start" x="197" y="-559.3" font-family="Times,serif" font-size="14.00">destroy</text>
<text text-anchor="start" x="197" y="-544.3" font-family="Times,serif" font-size="14.00">edit</text>
<text text-anchor="start" x="197" y="-529.3" font-family="Times,serif" font-size="14.00">index</text>
<text text-anchor="start" x="197" y="-514.3" font-family="Times,serif" font-size="14.00">new</text>
<text text-anchor="start" x="197" y="-499.3" font-family="Times,serif" font-size="14.00">show</text>
<text text-anchor="start" x="197" y="-484.3" font-family="Times,serif" font-size="14.00">update</text>
<polyline fill="none" stroke="black" points="189,-476.5 359,-476.5 "/>
<polyline fill="none" stroke="black" points="189,-452.5 359,-452.5 "/>
<text text-anchor="start" x="197" y="-437.3" font-family="Times,serif" font-size="14.00">_layout</text>
<text text-anchor="start" x="197" y="-422.3" font-family="Times,serif" font-size="14.00">attendance_local_params</text>
<text text-anchor="start" x="197" y="-407.3" font-family="Times,serif" font-size="14.00">set_attendance_local</text>
</g>
<!-- ReturnCodesController -->
<g id="node20" class="node"><title>ReturnCodesController</title>
<path fill="none" stroke="black" d="M117,-819.5C117,-819.5 236,-819.5 236,-819.5 242,-819.5 248,-825.5 248,-831.5 248,-831.5 248,-1020.5 248,-1020.5 248,-1026.5 242,-1032.5 236,-1032.5 236,-1032.5 117,-1032.5 117,-1032.5 111,-1032.5 105,-1026.5 105,-1020.5 105,-1020.5 105,-831.5 105,-831.5 105,-825.5 111,-819.5 117,-819.5"/>
<text text-anchor="middle" x="176.5" y="-1017.3" font-family="Times,serif" font-size="14.00">ReturnCodesController</text>
<polyline fill="none" stroke="black" points="105,-1009.5 248,-1009.5 "/>
<text text-anchor="start" x="113" y="-994.3" font-family="Times,serif" font-size="14.00">create</text>
<text text-anchor="start" x="113" y="-979.3" font-family="Times,serif" font-size="14.00">destroy</text>
<text text-anchor="start" x="113" y="-964.3" font-family="Times,serif" font-size="14.00">edit</text>
<text text-anchor="start" x="113" y="-949.3" font-family="Times,serif" font-size="14.00">index</text>
<text text-anchor="start" x="113" y="-934.3" font-family="Times,serif" font-size="14.00">new</text>
<text text-anchor="start" x="113" y="-919.3" font-family="Times,serif" font-size="14.00">show</text>
<text text-anchor="start" x="113" y="-904.3" font-family="Times,serif" font-size="14.00">update</text>
<polyline fill="none" stroke="black" points="105,-896.5 248,-896.5 "/>
<polyline fill="none" stroke="black" points="105,-872.5 248,-872.5 "/>
<text text-anchor="start" x="113" y="-857.3" font-family="Times,serif" font-size="14.00">_layout</text>
<text text-anchor="start" x="113" y="-842.3" font-family="Times,serif" font-size="14.00">return_code_params</text>
<text text-anchor="start" x="113" y="-827.3" font-family="Times,serif" font-size="14.00">set_return_code</text>
</g>
</g>
</svg>
