<?xml version="1.0" encoding="UTF-8" standalone="no"?>
<!DOCTYPE svg PUBLIC "-//W3C//DTD SVG 1.1//EN"
 "http://www.w3.org/Graphics/SVG/1.1/DTD/svg11.dtd">
<!-- Generated by graphviz version 2.36.0 (20140111.2315)
 -->
<!-- Title: models_diagram Pages: 1 -->
<svg width="1977pt" height="382pt"
 viewBox="0.00 0.00 1977.00 382.00" xmlns="http://www.w3.org/2000/svg" xmlns:xlink="http://www.w3.org/1999/xlink">
<g id="graph0" class="graph" transform="scale(1 1) rotate(0) translate(4 378)">
<title>models_diagram</title>
<polygon fill="white" stroke="none" points="-4,4 -4,-378 1973,-378 1973,4 -4,4"/>
<!-- _diagram_info -->
<g id="node1" class="node"><title>_diagram_info</title>
<text text-anchor="start" x="337" y="-359.6" font-family="Times,serif" font-size="13.00">Models diagram</text>
<text text-anchor="start" x="337" y="-345.6" font-family="Times,serif" font-size="13.00">Date: Jan 17 2015 &#45; 08:17</text>
<text text-anchor="start" x="337" y="-331.6" font-family="Times,serif" font-size="13.00">Migration version: 20150107152133</text>
<text text-anchor="start" x="337" y="-317.6" font-family="Times,serif" font-size="13.00">Generated by RailRoady 1.3.0</text>
<text text-anchor="start" x="337" y="-303.6" font-family="Times,serif" font-size="13.00">http://railroady.prestonlee.com</text>
</g>
<!-- CardObservation -->
<g id="node2" class="node"><title>CardObservation</title>
<ellipse fill="none" stroke="black" cx="442" cy="-18" rx="70.2668" ry="18"/>
<text text-anchor="middle" x="442" y="-14.3" font-family="Times,serif" font-size="14.00">CardObservation</text>
</g>
<!-- PublicEmployee -->
<g id="node3" class="node"><title>PublicEmployee</title>
<ellipse fill="none" stroke="black" cx="920" cy="-166" rx="69.3156" ry="18"/>
<text text-anchor="middle" x="920" y="-162.3" font-family="Times,serif" font-size="14.00">PublicEmployee</text>
</g>
<!-- MarginHistory -->
<g id="node5" class="node"><title>MarginHistory</title>
<ellipse fill="none" stroke="black" cx="889" cy="-92" rx="63.5411" ry="18"/>
<text text-anchor="middle" x="889" y="-88.3" font-family="Times,serif" font-size="14.00">MarginHistory</text>
</g>
<!-- PublicEmployee&#45;&gt;MarginHistory -->
<g id="edge4" class="edge"><title>PublicEmployee&#45;&gt;MarginHistory</title>
<path fill="none" stroke="#3f35f9" d="M909.477,-140.559C906.563,-133.792 903.388,-126.416 900.425,-119.536"/>
<ellipse fill="none" stroke="#3f35f9" cx="911.072" cy="-144.263" rx="4.00002" ry="4.00002"/>
<polygon fill="#3f35f9" stroke="#3f35f9" points="900.248,-119.125 900.427,-108.161 898.271,-114.533 896.294,-109.941 896.294,-109.941 896.294,-109.941 898.271,-114.533 892.161,-111.72 900.248,-119.125 900.248,-119.125"/>
</g>
<!-- AssistanceContract -->
<g id="node7" class="node"><title>AssistanceContract</title>
<ellipse fill="none" stroke="black" cx="641" cy="-92" rx="78.4642" ry="18"/>
<text text-anchor="middle" x="641" y="-88.3" font-family="Times,serif" font-size="14.00">AssistanceContract</text>
</g>
<!-- PublicEmployee&#45;&gt;AssistanceContract -->
<g id="edge2" class="edge"><title>PublicEmployee&#45;&gt;AssistanceContract</title>
<path fill="none" stroke="#56cd82" d="M864.756,-150.743C817.383,-138.518 749.283,-120.944 700.673,-108.4"/>
<ellipse fill="none" stroke="#56cd82" cx="868.798" cy="-151.787" rx="4.00001" ry="4.00001"/>
<polygon fill="#56cd82" stroke="#56cd82" points="700.6,-108.381 692.042,-101.525 695.759,-107.131 690.917,-105.882 690.917,-105.882 690.917,-105.882 695.759,-107.131 689.793,-110.239 700.6,-108.381 700.6,-108.381"/>
</g>
<!-- Card -->
<g id="node10" class="node"><title>Card</title>
<ellipse fill="none" stroke="black" cx="402" cy="-92" rx="27.4223" ry="18"/>
<text text-anchor="middle" x="402" y="-88.3" font-family="Times,serif" font-size="14.00">Card</text>
</g>
<!-- PublicEmployee&#45;&gt;Card -->
<g id="edge3" class="edge"><title>PublicEmployee&#45;&gt;Card</title>
<path fill="none" stroke="#5351dc" d="M852.469,-155.613C741.644,-140.209 524.884,-110.08 438.654,-98.0947"/>
<ellipse fill="none" stroke="#5351dc" cx="856.617" cy="-156.19" rx="4.00001" ry="4.00001"/>
<polygon fill="#5351dc" stroke="#5351dc" points="438.467,-98.0689 429.182,-92.2349 433.515,-97.3805 428.562,-96.6921 428.562,-96.6921 428.562,-96.6921 433.515,-97.3805 427.943,-101.149 438.467,-98.0689 438.467,-98.0689"/>
</g>
<!-- Loan -->
<g id="node28" class="node"><title>Loan</title>
<ellipse fill="none" stroke="black" cx="999" cy="-92" rx="28.3955" ry="18"/>
<text text-anchor="middle" x="999" y="-88.3" font-family="Times,serif" font-size="14.00">Loan</text>
</g>
<!-- PublicEmployee&#45;&gt;Loan -->
<g id="edge1" class="edge"><title>PublicEmployee&#45;&gt;Loan</title>
<path fill="none" stroke="#835352" d="M944.348,-142.809C954.399,-133.649 965.992,-123.083 975.908,-114.046"/>
<ellipse fill="none" stroke="#835352" cx="941.279" cy="-145.606" rx="4.00002" ry="4.00002"/>
<polygon fill="#835352" stroke="#835352" points="976.048,-113.918 986.471,-110.508 979.744,-110.55 983.439,-107.182 983.439,-107.182 983.439,-107.182 979.744,-110.55 980.408,-103.856 976.048,-113.918 976.048,-113.918"/>
</g>
<!-- MaritalStatus -->
<g id="node4" class="node"><title>MaritalStatus</title>
<ellipse fill="none" stroke="black" cx="794" cy="-240" rx="58.2422" ry="18"/>
<text text-anchor="middle" x="794" y="-236.3" font-family="Times,serif" font-size="14.00">MaritalStatus</text>
</g>
<!-- MaritalStatus&#45;&gt;PublicEmployee -->
<g id="edge5" class="edge"><title>MaritalStatus&#45;&gt;PublicEmployee</title>
<path fill="none" stroke="#628216" d="M827.39,-219.92C844.77,-209.988 866.043,-197.833 883.815,-187.677"/>
<ellipse fill="none" stroke="#628216" cx="823.887" cy="-221.922" rx="4.00002" ry="4.00002"/>
<polygon fill="#628216" stroke="#628216" points="884.068,-187.532 894.983,-186.478 888.41,-185.052 892.751,-182.571 892.751,-182.571 892.751,-182.571 888.41,-185.052 890.518,-178.664 884.068,-187.532 884.068,-187.532"/>
</g>
<!-- LoanHistory -->
<g id="node6" class="node"><title>LoanHistory</title>
<ellipse fill="none" stroke="black" cx="999" cy="-18" rx="55.3682" ry="18"/>
<text text-anchor="middle" x="999" y="-14.3" font-family="Times,serif" font-size="14.00">LoanHistory</text>
</g>
<!-- Variation -->
<g id="node14" class="node"><title>Variation</title>
<ellipse fill="none" stroke="black" cx="575" cy="-18" rx="44.2946" ry="18"/>
<text text-anchor="middle" x="575" y="-14.3" font-family="Times,serif" font-size="14.00">Variation</text>
</g>
<!-- AssistanceContract&#45;&gt;Variation -->
<g id="edge6" class="edge"><title>AssistanceContract&#45;&gt;Variation</title>
<path fill="none" stroke="#5aad7b" d="M620.111,-68.2122C612.637,-60.0584 604.2,-50.8546 596.662,-42.6311"/>
<ellipse fill="none" stroke="#5aad7b" cx="622.989" cy="-71.3522" rx="4.00002" ry="4.00002"/>
<polygon fill="#5aad7b" stroke="#5aad7b" points="596.528,-42.4849 593.088,-32.0726 593.149,-38.7992 589.771,-35.1134 589.771,-35.1134 589.771,-35.1134 593.149,-38.7992 586.453,-38.1542 596.528,-42.4849 596.528,-42.4849"/>
</g>
<!-- FinancialReleaseFile -->
<g id="node8" class="node"><title>FinancialReleaseFile</title>
<ellipse fill="none" stroke="black" cx="222" cy="-92" rx="84.2388" ry="18"/>
<text text-anchor="middle" x="222" y="-88.3" font-family="Times,serif" font-size="14.00">FinancialReleaseFile</text>
</g>
<!-- ReviewFinancialRelease -->
<g id="node16" class="node"><title>ReviewFinancialRelease</title>
<ellipse fill="none" stroke="black" cx="256" cy="-18" rx="97.237" ry="18"/>
<text text-anchor="middle" x="256" y="-14.3" font-family="Times,serif" font-size="14.00">ReviewFinancialRelease</text>
</g>
<!-- FinancialReleaseFile&#45;&gt;ReviewFinancialRelease -->
<g id="edge8" class="edge"><title>FinancialReleaseFile&#45;&gt;ReviewFinancialRelease</title>
<path fill="none" stroke="#2ce8ae" d="M233.542,-66.559C236.811,-59.635 240.382,-52.0727 243.695,-45.0571"/>
<ellipse fill="none" stroke="#2ce8ae" cx="231.766" cy="-70.32" rx="4.00002" ry="4.00002"/>
<polygon fill="#2ce8ae" stroke="#2ce8ae" points="243.73,-44.983 252.069,-37.8621 245.865,-40.4618 248,-35.9405 248,-35.9405 248,-35.9405 245.865,-40.4618 243.931,-34.019 243.73,-44.983 243.73,-44.983"/>
</g>
<!-- FinancialRelease -->
<g id="node22" class="node"><title>FinancialRelease</title>
<ellipse fill="none" stroke="black" cx="70" cy="-18" rx="70.2668" ry="18"/>
<text text-anchor="middle" x="70" y="-14.3" font-family="Times,serif" font-size="14.00">FinancialRelease</text>
</g>
<!-- FinancialReleaseFile&#45;&gt;FinancialRelease -->
<g id="edge7" class="edge"><title>FinancialReleaseFile&#45;&gt;FinancialRelease</title>
<path fill="none" stroke="#457fe9" d="M181.505,-71.8182C159.68,-61.4798 132.815,-48.7545 110.924,-38.385"/>
<ellipse fill="none" stroke="#457fe9" cx="185.403" cy="-73.6647" rx="4.00002" ry="4.00002"/>
<polygon fill="#457fe9" stroke="#457fe9" points="110.913,-38.38 103.802,-30.0322 106.394,-36.2395 101.876,-34.099 101.876,-34.099 101.876,-34.099 106.394,-36.2395 99.9493,-38.1659 110.913,-38.38 110.913,-38.38"/>
</g>
<!-- SuspensionAge -->
<g id="node9" class="node"><title>SuspensionAge</title>
<ellipse fill="none" stroke="black" cx="936" cy="-240" rx="65.4659" ry="18"/>
<text text-anchor="middle" x="936" y="-236.3" font-family="Times,serif" font-size="14.00">SuspensionAge</text>
</g>
<!-- SuspensionAge&#45;&gt;PublicEmployee -->
<g id="edge9" class="edge"><title>SuspensionAge&#45;&gt;PublicEmployee</title>
<path fill="none" stroke="#f6c989" d="M930.464,-214.086C929.039,-207.674 927.498,-200.742 926.049,-194.219"/>
<ellipse fill="none" stroke="#f6c989" cx="931.34" cy="-218.032" rx="4.00001" ry="4.00001"/>
<polygon fill="#f6c989" stroke="#f6c989" points="926.045,-194.203 928.269,-183.464 924.96,-189.322 923.876,-184.441 923.876,-184.441 923.876,-184.441 924.96,-189.322 919.483,-185.417 926.045,-194.203 926.045,-194.203"/>
</g>
<!-- Card&#45;&gt;CardObservation -->
<g id="edge10" class="edge"><title>Card&#45;&gt;CardObservation</title>
<path fill="none" stroke="#402c00" d="M415.047,-67.5159C419.058,-60.2958 423.495,-52.3085 427.592,-44.934"/>
<ellipse fill="none" stroke="#402c00" cx="413.019" cy="-71.1655" rx="4.00002" ry="4.00002"/>
<polygon fill="#402c00" stroke="#402c00" points="427.685,-44.7661 436.476,-38.2099 430.114,-40.3953 432.542,-36.0245 432.542,-36.0245 432.542,-36.0245 430.114,-40.3953 428.608,-33.8391 427.685,-44.7661 427.685,-44.7661"/>
</g>
<!-- Card&#45;&gt;FinancialRelease -->
<g id="edge11" class="edge"><title>Card&#45;&gt;FinancialRelease</title>
<path fill="none" stroke="#cbb99e" d="M368.096,-83.6473C312.636,-71.6199 201.72,-47.5657 131.932,-32.431"/>
<ellipse fill="none" stroke="#cbb99e" cx="372.316" cy="-84.5624" rx="4.00001" ry="4.00001"/>
<polygon fill="#cbb99e" stroke="#cbb99e" points="131.718,-32.3847 122.899,-25.8674 126.832,-31.325 121.945,-30.2652 121.945,-30.2652 121.945,-30.2652 126.832,-31.325 120.991,-34.663 131.718,-32.3847 131.718,-32.3847"/>
</g>
<!-- Property -->
<g id="node11" class="node"><title>Property</title>
<ellipse fill="none" stroke="black" cx="1581" cy="-335" rx="40.4202" ry="18"/>
<text text-anchor="middle" x="1581" y="-331.3" font-family="Times,serif" font-size="14.00">Property</text>
</g>
<!-- LoanObservation -->
<g id="node12" class="node"><title>LoanObservation</title>
<ellipse fill="none" stroke="black" cx="758" cy="-18" rx="71.2405" ry="18"/>
<text text-anchor="middle" x="758" y="-14.3" font-family="Times,serif" font-size="14.00">LoanObservation</text>
</g>
<!-- Commissioned -->
<g id="node13" class="node"><title>Commissioned</title>
<ellipse fill="none" stroke="black" cx="1084" cy="-240" rx="64.0172" ry="18"/>
<text text-anchor="middle" x="1084" y="-236.3" font-family="Times,serif" font-size="14.00">Commissioned</text>
</g>
<!-- Commissioned&#45;&gt;PublicEmployee -->
<g id="edge12" class="edge"><title>Commissioned&#45;&gt;PublicEmployee</title>
<path fill="none" stroke="#f21818" d="M1043.27,-221.119C1018.81,-210.38 987.723,-196.732 962.887,-185.828"/>
<ellipse fill="none" stroke="#f21818" cx="1047.15" cy="-222.822" rx="4.00002" ry="4.00002"/>
<polygon fill="#f21818" stroke="#f21818" points="962.858,-185.816 955.51,-177.675 958.28,-183.806 953.701,-181.796 953.701,-181.796 953.701,-181.796 958.28,-183.806 951.892,-185.916 962.858,-185.816 962.858,-185.816"/>
</g>
<!-- Product -->
<g id="node15" class="node"><title>Product</title>
<ellipse fill="none" stroke="black" cx="1466" cy="-240" rx="38.0212" ry="18"/>
<text text-anchor="middle" x="1466" y="-236.3" font-family="Times,serif" font-size="14.00">Product</text>
</g>
<!-- Holiday -->
<g id="node17" class="node"><title>Holiday</title>
<ellipse fill="none" stroke="black" cx="1679" cy="-335" rx="38.4949" ry="18"/>
<text text-anchor="middle" x="1679" y="-331.3" font-family="Times,serif" font-size="14.00">Holiday</text>
</g>
<!-- Consignee -->
<g id="node18" class="node"><title>Consignee</title>
<ellipse fill="none" stroke="black" cx="609" cy="-335" rx="48.1437" ry="18"/>
<text text-anchor="middle" x="609" y="-331.3" font-family="Times,serif" font-size="14.00">Consignee</text>
</g>
<!-- Consignee&#45;&gt;AssistanceContract -->
<g id="edge17" class="edge"><title>Consignee&#45;&gt;AssistanceContract</title>
<path fill="none" stroke="#7a3ce7" d="M612.395,-308.434C618.472,-262.665 631.155,-167.143 637.387,-120.211"/>
<ellipse fill="none" stroke="#7a3ce7" cx="611.828" cy="-312.703" rx="4.00001" ry="4.00001"/>
<polygon fill="#7a3ce7" stroke="#7a3ce7" points="637.403,-120.088 643.18,-110.767 638.061,-115.132 638.719,-110.175 638.719,-110.175 638.719,-110.175 638.061,-115.132 634.259,-109.583 637.403,-120.088 637.403,-120.088"/>
</g>
<!-- Consignee&#45;&gt;Card -->
<g id="edge18" class="edge"><title>Consignee&#45;&gt;Card</title>
<path fill="none" stroke="#9eca4a" d="M583.056,-313.722C573.457,-307.13 562.181,-300.39 551,-296 494.173,-273.69 448.743,-311.314 419,-258 394.819,-214.657 395.492,-154.889 398.513,-120.456"/>
<ellipse fill="none" stroke="#9eca4a" cx="586.463" cy="-316.144" rx="4.00002" ry="4.00002"/>
<polygon fill="#9eca4a" stroke="#9eca4a" points="398.542,-120.169 404.026,-110.673 399.045,-115.195 399.549,-110.22 399.549,-110.22 399.549,-110.22 399.045,-115.195 395.071,-109.767 398.542,-120.169 398.542,-120.169"/>
</g>
<!-- Consignee&#45;&gt;Product -->
<g id="edge14" class="edge"><title>Consignee&#45;&gt;Product</title>
<path fill="none" stroke="#e33f62" d="M665.352,-334.026C824.687,-333.48 1275.84,-327.484 1414,-278 1423.75,-274.506 1433.32,-268.628 1441.54,-262.573"/>
<ellipse fill="none" stroke="#e33f62" cx="661.083" cy="-334.039" rx="4" ry="4"/>
<polygon fill="#e33f62" stroke="#e33f62" points="1441.68,-262.457 1452.33,-259.835 1445.62,-259.374 1449.56,-256.292 1449.56,-256.292 1449.56,-256.292 1445.62,-259.374 1446.78,-252.749 1441.68,-262.457 1441.68,-262.457"/>
</g>
<!-- AttendanceLocal -->
<g id="node21" class="node"><title>AttendanceLocal</title>
<ellipse fill="none" stroke="black" cx="510" cy="-240" rx="70.2668" ry="18"/>
<text text-anchor="middle" x="510" y="-236.3" font-family="Times,serif" font-size="14.00">AttendanceLocal</text>
</g>
<!-- Consignee&#45;&gt;AttendanceLocal -->
<g id="edge13" class="edge"><title>Consignee&#45;&gt;AttendanceLocal</title>
<path fill="none" stroke="#ed8efd" d="M585.532,-311.955C570.437,-297.774 550.827,-279.352 535.371,-264.833"/>
<ellipse fill="none" stroke="#ed8efd" cx="588.84" cy="-315.062" rx="4.00002" ry="4.00002"/>
<polygon fill="#ed8efd" stroke="#ed8efd" points="535.002,-264.487 530.795,-254.36 531.358,-261.063 527.713,-257.64 527.713,-257.64 527.713,-257.64 531.358,-261.063 524.632,-260.92 535.002,-264.487 535.002,-264.487"/>
</g>
<!-- PortabilityRequest -->
<g id="node25" class="node"><title>PortabilityRequest</title>
<ellipse fill="none" stroke="black" cx="1250" cy="-18" rx="76.0649" ry="18"/>
<text text-anchor="middle" x="1250" y="-14.3" font-family="Times,serif" font-size="14.00">PortabilityRequest</text>
</g>
<!-- Consignee&#45;&gt;PortabilityRequest -->
<g id="edge19" class="edge"><title>Consignee&#45;&gt;PortabilityRequest</title>
<path fill="none" stroke="#f1355c" d="M665.048,-333.299C845.545,-330.308 1400,-315.09 1400,-241 1400,-241 1400,-241 1400,-91 1400,-55.3548 1365.15,-37.3442 1329.04,-28.2498"/>
<ellipse fill="none" stroke="#f1355c" cx="660.994" cy="-333.364" rx="4" ry="4"/>
<polygon fill="#f1355c" stroke="#f1355c" points="1328.6,-28.1486 1319.86,-21.5277 1323.73,-27.0313 1318.85,-25.9139 1318.85,-25.9139 1318.85,-25.9139 1323.73,-27.0313 1317.85,-30.3001 1328.6,-28.1486 1328.6,-28.1486"/>
</g>
<!-- Consignee&#45;&gt;Loan -->
<g id="edge16" class="edge"><title>Consignee&#45;&gt;Loan</title>
<path fill="none" stroke="#2d2871" d="M664.727,-332.437C828.181,-327.284 1297.73,-308.201 1343,-258 1436.26,-154.58 1144.3,-109.741 1036.97,-97.0168"/>
<ellipse fill="none" stroke="#2d2871" cx="660.712" cy="-332.562" rx="4" ry="4"/>
<polygon fill="#2d2871" stroke="#2d2871" points="1036.82,-96.9992 1027.4,-91.3813 1031.85,-96.4254 1026.88,-95.8516 1026.88,-95.8516 1026.88,-95.8516 1031.85,-96.4254 1026.37,-100.322 1036.82,-96.9992 1036.82,-96.9992"/>
</g>
<!-- User -->
<g id="node29" class="node"><title>User</title>
<ellipse fill="none" stroke="black" cx="496" cy="-166" rx="26.949" ry="18"/>
<text text-anchor="middle" x="496" y="-162.3" font-family="Times,serif" font-size="14.00">User</text>
</g>
<!-- Consignee&#45;&gt;User -->
<g id="edge15" class="edge"><title>Consignee&#45;&gt;User</title>
<path fill="none" stroke="#57d844" d="M581.992,-314.087C572.52,-307.713 561.594,-301.015 551,-296 500.053,-271.881 463.356,-303.438 430,-258 420.532,-245.102 423.214,-236.489 430,-222 437.577,-205.823 452.51,-192.744 466.257,-183.406"/>
<ellipse fill="none" stroke="#57d844" cx="585.313" cy="-316.374" rx="4.00002" ry="4.00002"/>
<polygon fill="#57d844" stroke="#57d844" points="466.598,-183.189 477.45,-181.609 470.815,-180.502 475.031,-177.814 475.031,-177.814 475.031,-177.814 470.815,-180.502 472.613,-174.019 466.598,-183.189 466.598,-183.189"/>
</g>
<!-- ReturnCode -->
<g id="node19" class="node"><title>ReturnCode</title>
<ellipse fill="none" stroke="black" cx="1789" cy="-335" rx="52.9443" ry="18"/>
<text text-anchor="middle" x="1789" y="-331.3" font-family="Times,serif" font-size="14.00">ReturnCode</text>
</g>
<!-- SearchEmployee -->
<g id="node20" class="node"><title>SearchEmployee</title>
<polygon fill="none" stroke="black" points="1969.25,-353 1860.75,-353 1860.75,-317 1969.25,-317 1969.25,-353"/>
<text text-anchor="middle" x="1915" y="-331.3" font-family="Times,serif" font-size="14.00">SearchEmployee</text>
</g>
<!-- AttendanceLocal&#45;&gt;User -->
<g id="edge20" class="edge"><title>AttendanceLocal&#45;&gt;User</title>
<path fill="none" stroke="#a01c9e" d="M505.132,-213.965C503.866,-207.452 502.496,-200.41 501.213,-193.809"/>
<ellipse fill="none" stroke="#a01c9e" cx="505.919" cy="-218.011" rx="4.00001" ry="4.00001"/>
<polygon fill="#a01c9e" stroke="#a01c9e" points="501.203,-193.757 503.711,-183.082 500.248,-188.849 499.294,-183.941 499.294,-183.941 499.294,-183.941 500.248,-188.849 494.877,-184.799 501.203,-193.757 501.203,-193.757"/>
</g>
<!-- Situation -->
<g id="node23" class="node"><title>Situation</title>
<ellipse fill="none" stroke="black" cx="1209" cy="-240" rx="42.3701" ry="18"/>
<text text-anchor="middle" x="1209" y="-236.3" font-family="Times,serif" font-size="14.00">Situation</text>
</g>
<!-- Situation&#45;&gt;PublicEmployee -->
<g id="edge21" class="edge"><title>Situation&#45;&gt;PublicEmployee</title>
<path fill="none" stroke="#de6a8b" d="M1169.33,-225.633C1165.18,-224.355 1161.01,-223.12 1157,-222 1098.31,-205.632 1030.52,-190.248 982.514,-179.936"/>
<ellipse fill="none" stroke="#de6a8b" cx="1173.42" cy="-226.923" rx="4.00001" ry="4.00001"/>
<polygon fill="#de6a8b" stroke="#de6a8b" points="982.36,-179.903 973.521,-173.413 977.471,-178.858 972.581,-177.814 972.581,-177.814 972.581,-177.814 977.471,-178.858 971.641,-182.214 982.36,-179.903 982.36,-179.903"/>
</g>
<!-- Organ -->
<g id="node24" class="node"><title>Organ</title>
<ellipse fill="none" stroke="black" cx="1302" cy="-240" rx="32.2457" ry="18"/>
<text text-anchor="middle" x="1302" y="-236.3" font-family="Times,serif" font-size="14.00">Organ</text>
</g>
<!-- Organ&#45;&gt;PublicEmployee -->
<g id="edge22" class="edge"><title>Organ&#45;&gt;PublicEmployee</title>
<path fill="none" stroke="#95e671" d="M1269.86,-225.148C1266.57,-223.982 1263.24,-222.905 1260,-222 1170.12,-196.883 1063.46,-181.949 993.884,-174.117"/>
<ellipse fill="none" stroke="#95e671" cx="1273.7" cy="-226.587" rx="4.00001" ry="4.00001"/>
<polygon fill="#95e671" stroke="#95e671" points="993.834,-174.112 984.39,-168.54 988.865,-173.562 983.895,-173.013 983.895,-173.013 983.895,-173.013 988.865,-173.562 983.4,-177.486 993.834,-174.112 993.834,-174.112"/>
</g>
<!-- ProductType -->
<g id="node26" class="node"><title>ProductType</title>
<ellipse fill="none" stroke="black" cx="1466" cy="-335" rx="55.3436" ry="18"/>
<text text-anchor="middle" x="1466" y="-331.3" font-family="Times,serif" font-size="14.00">ProductType</text>
</g>
<!-- ProductType&#45;&gt;Product -->
<g id="edge23" class="edge"><title>ProductType&#45;&gt;Product</title>
<path fill="none" stroke="#e8d663" d="M1466,-308.562C1466,-296.078 1466,-281.025 1466,-268.299"/>
<ellipse fill="none" stroke="#e8d663" cx="1466" cy="-312.942" rx="4" ry="4"/>
<polygon fill="#e8d663" stroke="#e8d663" points="1466,-268.264 1470.5,-258.264 1466,-263.264 1466,-258.264 1466,-258.264 1466,-258.264 1466,-263.264 1461.5,-258.264 1466,-268.264 1466,-268.264"/>
</g>
<!-- Literacy -->
<g id="node27" class="node"><title>Literacy</title>
<ellipse fill="none" stroke="black" cx="677" cy="-240" rx="39.9464" ry="18"/>
<text text-anchor="middle" x="677" y="-236.3" font-family="Times,serif" font-size="14.00">Literacy</text>
</g>
<!-- Literacy&#45;&gt;PublicEmployee -->
<g id="edge24" class="edge"><title>Literacy&#45;&gt;PublicEmployee</title>
<path fill="none" stroke="#1fe335" d="M715.188,-225.797C719.168,-224.486 723.16,-223.199 727,-222 772.794,-207.7 825.161,-192.871 863.782,-182.22"/>
<ellipse fill="none" stroke="#1fe335" cx="711.389" cy="-227.063" rx="4.00001" ry="4.00001"/>
<polygon fill="#1fe335" stroke="#1fe335" points="864.15,-182.119 874.985,-183.807 868.971,-180.793 873.792,-179.468 873.792,-179.468 873.792,-179.468 868.971,-180.793 872.599,-175.129 864.15,-182.119 864.15,-182.119"/>
</g>
<!-- Loan&#45;&gt;LoanHistory -->
<g id="edge25" class="edge"><title>Loan&#45;&gt;LoanHistory</title>
<path fill="none" stroke="#37fd3a" d="M999,-65.7923C999,-59.5805 999,-52.8963 999,-46.5786"/>
<ellipse fill="none" stroke="#37fd3a" cx="999" cy="-69.937" rx="4" ry="4"/>
<polygon fill="#37fd3a" stroke="#37fd3a" points="999,-46.4407 1003.5,-36.4406 999,-41.4407 999,-36.4407 999,-36.4407 999,-36.4407 999,-41.4407 994.5,-36.4407 999,-46.4407 999,-46.4407"/>
</g>
<!-- Loan&#45;&gt;LoanObservation -->
<g id="edge26" class="edge"><title>Loan&#45;&gt;LoanObservation</title>
<path fill="none" stroke="#3816e9" d="M969.609,-77.3124C966.724,-76.132 963.821,-75.0061 961,-74 914.296,-57.3409 860.017,-42.879 819.343,-32.9711"/>
<ellipse fill="none" stroke="#3816e9" cx="973.455" cy="-78.9514" rx="4.00002" ry="4.00002"/>
<polygon fill="#3816e9" stroke="#3816e9" points="819.292,-32.959 810.626,-26.2399 814.432,-31.7868 809.571,-30.6145 809.571,-30.6145 809.571,-30.6145 814.432,-31.7868 808.516,-34.9891 819.292,-32.959 819.292,-32.959"/>
</g>
<!-- Loan&#45;&gt;PortabilityRequest -->
<g id="edge28" class="edge"><title>Loan&#45;&gt;PortabilityRequest</title>
<path fill="none" stroke="#39cdef" d="M1032.25,-81.4611C1073.49,-69.6336 1144.39,-49.2959 1194.05,-35.0499"/>
<ellipse fill="none" stroke="#39cdef" cx="1028.29" cy="-82.5971" rx="4.00001" ry="4.00001"/>
<polygon fill="#39cdef" stroke="#39cdef" points="1194.07,-35.0436 1204.92,-36.6118 1198.88,-33.6649 1203.68,-32.2862 1203.68,-32.2862 1203.68,-32.2862 1198.88,-33.6649 1202.44,-27.9607 1194.07,-35.0436 1194.07,-35.0436"/>
</g>
<!-- Loan&#45;&gt;Loan -->
<g id="edge27" class="edge"><title>Loan&#45;&gt;Loan</title>
<path fill="none" stroke="#55b70e" d="M1033.86,-98.408C1040.4,-97.6231 1045,-95.4871 1045,-92 1045,-88.8162 1041.16,-86.7586 1035.52,-85.8274"/>
<ellipse fill="none" stroke="#55b70e" cx="1029.47" cy="-98.5655" rx="4" ry="4"/>
<polygon fill="#55b70e" stroke="#55b70e" points="1035.46,-85.824 1025.71,-80.7976 1030.46,-85.5576 1025.47,-85.2912 1025.47,-85.2912 1025.47,-85.2912 1030.46,-85.5576 1025.23,-89.7848 1035.46,-85.824 1035.46,-85.824"/>
<text text-anchor="middle" x="1067.5" y="-88.3" font-family="Times,serif" font-size="14.00">children</text>
</g>
<!-- User&#45;&gt;CardObservation -->
<g id="edge34" class="edge"><title>User&#45;&gt;CardObservation</title>
<path fill="none" stroke="#deb01f" d="M486.15,-140.689C484.737,-137.112 483.317,-133.466 482,-130 471.083,-101.274 459.224,-68.0958 451.276,-45.549"/>
<ellipse fill="none" stroke="#deb01f" cx="487.707" cy="-144.596" rx="4.00001" ry="4.00001"/>
<polygon fill="#deb01f" stroke="#deb01f" points="451.233,-45.4263 452.163,-34.4999 449.575,-40.7091 447.918,-35.992 447.918,-35.992 447.918,-35.992 449.575,-40.7091 443.672,-37.4841 451.233,-45.4263 451.233,-45.4263"/>
</g>
<!-- User&#45;&gt;AssistanceContract -->
<g id="edge31" class="edge"><title>User&#45;&gt;AssistanceContract</title>
<path fill="none" stroke="#764a04" d="M524.33,-150.933C546.099,-140.123 576.453,-125.051 600.743,-112.989"/>
<ellipse fill="none" stroke="#764a04" cx="520.667" cy="-152.752" rx="4.00002" ry="4.00002"/>
<polygon fill="#764a04" stroke="#764a04" points="600.769,-112.977 611.727,-112.56 605.247,-110.753 609.725,-108.529 609.725,-108.529 609.725,-108.529 605.247,-110.753 607.724,-104.499 600.769,-112.977 600.769,-112.977"/>
</g>
<!-- User&#45;&gt;Card -->
<g id="edge33" class="edge"><title>User&#45;&gt;Card</title>
<path fill="none" stroke="#8e4806" d="M469.962,-148.433C461.516,-142.807 452.211,-136.337 444,-130 437.653,-125.102 431.036,-119.518 424.98,-114.199"/>
<ellipse fill="none" stroke="#8e4806" cx="473.47" cy="-150.74" rx="4.00002" ry="4.00002"/>
<polygon fill="#8e4806" stroke="#8e4806" points="424.606,-113.864 420.149,-103.845 420.878,-110.532 417.15,-107.2 417.15,-107.2 417.15,-107.2 420.878,-110.532 414.151,-110.555 424.606,-113.864 424.606,-113.864"/>
</g>
<!-- User&#45;&gt;LoanObservation -->
<g id="edge30" class="edge"><title>User&#45;&gt;LoanObservation</title>
<path fill="none" stroke="#269684" d="M505.205,-140.698C514.286,-119.965 530.138,-90.9033 553,-74 590.09,-46.5767 639.923,-32.8217 681.169,-25.9249"/>
<ellipse fill="none" stroke="#269684" cx="503.605" cy="-144.506" rx="4.00002" ry="4.00002"/>
<polygon fill="#269684" stroke="#269684" points="681.305,-25.9037 691.881,-28.8007 686.245,-25.1293 691.184,-24.355 691.184,-24.355 691.184,-24.355 686.245,-25.1293 690.487,-19.9093 681.305,-25.9037 681.305,-25.9037"/>
</g>
<!-- User&#45;&gt;Variation -->
<g id="edge32" class="edge"><title>User&#45;&gt;Variation</title>
<path fill="none" stroke="#98a3a8" d="M508.569,-141.771C522.891,-115.303 546.23,-72.1699 561.088,-44.7099"/>
<ellipse fill="none" stroke="#98a3a8" cx="506.66" cy="-145.3" rx="4.00002" ry="4.00002"/>
<polygon fill="#98a3a8" stroke="#98a3a8" points="561.203,-44.4986 569.92,-37.8451 563.582,-40.1011 565.962,-35.7036 565.962,-35.7036 565.962,-35.7036 563.582,-40.1011 562.004,-33.562 561.203,-44.4986 561.203,-44.4986"/>
</g>
<!-- User&#45;&gt;FinancialRelease -->
<g id="edge35" class="edge"><title>User&#45;&gt;FinancialRelease</title>
<path fill="none" stroke="#531850" d="M460.495,-163.356C379.434,-159.027 183.548,-145.13 129,-110 105.495,-94.8622 89.4081,-66.6706 80.0413,-45.6606"/>
<ellipse fill="none" stroke="#531850" cx="464.891" cy="-163.584" rx="4" ry="4"/>
<polygon fill="#531850" stroke="#531850" points="79.9793,-45.5136 80.2403,-34.5509 78.0366,-40.9065 76.0939,-36.2993 76.0939,-36.2993 76.0939,-36.2993 78.0366,-40.9065 71.9474,-38.0478 79.9793,-45.5136 79.9793,-45.5136"/>
</g>
<!-- User&#45;&gt;Loan -->
<g id="edge29" class="edge"><title>User&#45;&gt;Loan</title>
<path fill="none" stroke="#cae4eb" d="M531.414,-164.44C610.104,-162.416 804.867,-153.076 961,-110 963.438,-109.327 965.92,-108.521 968.388,-107.629"/>
<ellipse fill="none" stroke="#cae4eb" cx="527.281" cy="-164.539" rx="4" ry="4"/>
<polygon fill="#cae4eb" stroke="#cae4eb" points="968.439,-107.609 979.396,-108.051 973.078,-105.743 977.717,-103.877 977.717,-103.877 977.717,-103.877 973.078,-105.743 976.037,-99.7019 968.439,-107.609 968.439,-107.609"/>
</g>
</g>
</svg>
